{
  "project_info": {
    "project_number": "728206919315",
    "firebase_url": "https://resto4387.firebaseio.com",
    "project_id": "resto4387",
    "storage_bucket": "resto4387.appspot.com"
  },
  "client": [
    {
      "client_info": {
        "mobilesdk_app_id": "1:728206919315:android:f7c8a2170ddd4643",
        "android_client_info": {
          "package_name": "com.resto.restoyasnita4387"
        }
      },
      "oauth_client": [
        {
          "client_id": "728206919315-p2c29re5etli7dlt6hgdb6fh2i63ho7c.apps.googleusercontent.com",
          "client_type": 1,
          "android_info": {
            "package_name": "com.resto.restoyasnita4387",
            "certificate_hash": "9a859b1cbdec5186f541ea4a5f0481554e8d4b67"
          }
        },
        {
          "client_id": "728206919315-6b5n2uqr1vs027ke51b6fmq06jbjf1hc.apps.googleusercontent.com",
          "client_type": 3
        }
      ],
      "api_key": [
        {
          "current_key": "AIzaSyDa0RNZIJnONOeBgXfZ8K7nn-GkeDJ5wns"
        }
      ],
      "services": {
        "analytics_service": {
          "status": 1
        },
        "appinvite_service": {
          "status": 2,
          "other_platform_oauth_client": [
            {
              "client_id": "728206919315-6b5n2uqr1vs027ke51b6fmq06jbjf1hc.apps.googleusercontent.com",
              "client_type": 3
            }
          ]
        },
        "ads_service": {
          "status": 2
        }
      }
    }
  ],
  "configuration_version": "1"
}